{
  "name": "big Buttons menu",
  "identifier": "bigButtonsmenu",
  "description": {
    "es-ES": "",
    "en-US": ""
  },
  "documentation": {
    "es-ES": "http://resources.kingofapp.com/modules/bigButtonsmenu/original/0.0.1/docs/es_ES.md",
    "en-US": "http://resources.kingofapp.com/modules/bigButtonsmenu/original/0.0.1/docs/en_US.md"
  },
  "descriptionShort": {
    "es-ES": "",
    "en-US": ""
  },
  "icon": "menu",
  "type": "A",
  "version": "0.0.1",
  "author": "King of app",
  "category": [
    "menu"
  ],
  "price": 0,
  "subscription": false,
  "canContain": true,
  "platforms": [
    "android",
    "ios",
    "windows"
  ],
  "view": "http://resources.kingofapp.com/modules/bigButtonsmenu/original/0.0.1/index.html",
  "files": [
    "http://resources.kingofapp.com/modules/bigButtonsmenu/original/0.0.1/controller.js",
    "http://resources.kingofapp.com/modules/bigButtonsmenu/original/0.0.1/style.html"
  ],
  "scope": {
    "menuItems": [],
    "testWithoutLogin": true,
    "showicons": true,
    "headerText": "",
    "openPercent": 100,
    "isPositionRight": true,
    "moduleBackground":""
  },
  "libs": [],
  "config": [
    {
      "type": "repeatSection",
      "key": "menuItems",
      "templateOptions": {
        "label": "Items",
        "btnText": "Add another item to the menu",
        "fields": [
          {
            "type": "select",
            "key": "path",
            "templateOptions": {
              "label": "Path",
              "required": true
            }
          },
          {
            "type": "input",
            "key": "buttonBackground",
            "templateOptions": {
              "type": "url",
              "placeholder": "https://example.com/image.jpg",
              "label": "button Background Image"
            }
          }
        ]
      }
    },
    {
      "key": "showicons",
      "type": "checkbox",
      "templateOptions": {
        "description": "Show menu icons",
        "label": "Menu icons"
      }
    }
  ],
  "showOn": {
    "menu": false,
    "market": true,
    "dragDrop": true
  },
  "images": {
    "list": "http://resources.kingofapp.com/modules/bigButtonsmenu/original/0.0.1/images/list.png",
    "screenshots": [
      "http://resources.kingofapp.com/modules/bigButtonsmenu/original/0.0.1/images/screenshot01.png"
    ],
    "popover": "http://resources.kingofapp.com/modules/bigButtonsmenu/original/0.0.1/images/popover.png",
    "banner": "http://resources.kingofapp.com/modules/bigButtonsmenu/original/0.0.1/images/banner.png",
    "logo": "http://resources.kingofapp.com/modules/bigButtonsmenu/original/0.0.1/images/logo.png"
  }
}